<?xml version="1.0" encoding="UTF-8"?>
<svg width="60px" height="60px" viewBox="0 0 60 60" version="1.1" xmlns="http://www.w3.org/2000/svg" xmlns:xlink="http://www.w3.org/1999/xlink">
    <!-- Generator: Sketch 51.2 (57519) - http://www.bohemiancoding.com/sketch -->
    <title>Group 3</title>
    <desc>Created with Sketch.</desc>
    <defs></defs>
    <g id="Page-1" stroke="none" stroke-width="1" fill="none" fill-rule="evenodd">
        <g id="Group-3">
            <g id="barchart">
                <g id="comparison" fill="#DA57C8" fill-rule="nonzero">
                    <circle id="Oval" cx="30" cy="30" r="30"></circle>
                </g>
                <g id="shopping-cart" transform="translate(12.000000, 15.000000)"></g>
            </g>
            <g id="bar-chart" transform="translate(13.000000, 16.000000)" fill="#FFFFFF" fill-rule="nonzero">
                <path d="M32.220375,27 L0.779625,27 C0.349013672,27 0,27.4476687 0,28 C0,28.552166 0.349013672,29 0.779625,29 L32.220375,29 C32.6508574,29 33,28.552166 33,28 C33,27.4477513 32.6509863,27 32.220375,27 Z" id="Shape"></path>
                <path d="M30.2186954,3.73895416 L24.7312818,3.73895416 C24.2998363,3.73895416 23.9499126,4.09363885 23.9499126,4.53095454 L23.9499126,9.91571901 L20.0251729,9.91571901 L20.0251729,0.792000377 C20.0251729,0.354684693 19.6752492,0 19.2438037,0 L13.7562609,0 C13.3248154,0 12.9748917,0.354684693 12.9748917,0.792000377 L12.9748917,15.7783289 L9.05015203,15.7783289 L9.05015203,9.04612931 C9.05015203,8.60868267 8.70022832,8.25412893 8.26878279,8.25412893 L2.78136924,8.25412893 C2.34979451,8.25412893 2,8.60868267 2,9.04612931 L2,24.2079996 C2,24.6454463 2.34992371,25 2.78136924,25 L8.26878279,25 L13.7561963,25 L19.2437391,25 L24.7312172,25 L30.2186308,25 C30.6502055,25 31,24.6453153 31,24.2079996 L31,4.53095454 C31.0000646,4.09363885 30.6502701,3.73895416 30.2186954,3.73895416 Z M7.48747814,23.4159992 L3.56273848,23.4159992 L3.56273848,9.83812968 L7.48747814,9.83812968 L7.48747814,23.4159992 Z M12.9750209,23.4159992 L9.05028122,23.4159992 L9.05028122,17.3623297 L12.9750209,17.3623297 L12.9750209,23.4159992 Z M18.462499,10.7077194 L18.462499,23.4159992 L14.5376948,23.4159992 L14.5376948,1.58400075 L18.462499,1.58400075 L18.462499,10.7077194 Z M23.9500418,23.4159992 L20.0253021,23.4159992 L20.0253021,11.4997198 L23.9500418,11.4997198 L23.9500418,23.4159992 Z M29.4374553,23.4159992 L25.5127802,23.4159992 L25.5127802,10.7077194 L25.5127802,5.32295492 L29.4375199,5.32295492 L29.4375199,23.4159992 L29.4374553,23.4159992 Z" id="Shape"></path>
            </g>
            <text id="1" font-family="Menlo-Bold, Menlo" font-size="8" font-weight="bold" fill="#FFFFFF">
                <tspan x="16" y="22">1</tspan>
            </text>
            <text id="2" font-family="Menlo-Bold, Menlo" font-size="8" font-weight="bold" fill="#FFFFFF">
                <tspan x="27" y="14">2</tspan>
            </text>
            <text id="3" font-family="Menlo-Bold, Menlo" font-size="8" font-weight="bold" fill="#FFFFFF">
                <tspan x="38" y="18">3</tspan>
            </text>
        </g>
    </g>
</svg>