<?xml version="1.0" encoding="utf-8"?>
<!-- Generator: Adobe Illustrator 22.1.0, SVG Export Plug-In . SVG Version: 6.00 Build 0)  -->
<svg version="1.1" id="Layer_1" xmlns="http://www.w3.org/2000/svg" xmlns:xlink="http://www.w3.org/1999/xlink" x="0px" y="0px"
	 viewBox="0 0 334 81" style="enable-background:new 0 0 334 81;" xml:space="preserve">
<style type="text/css">
	.st0{fill:#FF8939;}
	.st1{fill:#0B3354;}
	.st2{fill:url(#SVGID_1_);}
	.st3{fill:#FC1A60;}
	.st4{fill:none;stroke:#FC1A60;stroke-width:0.75;stroke-miterlimit:10;}
	.st5{fill:#FFB936;}
	.st6{fill:url(#SVGID_2_);}
	.st7{fill:#33577B;}
	.st8{fill:#FF4176;}
	.st9{fill:url(#SVGID_3_);}
	.st10{fill:#33577B;stroke:#33577B;stroke-width:1.5;stroke-miterlimit:10;}
	.st11{fill:#FFFFFF;}
	.st12{fill:#2F7E93;}
	.st13{fill:none;stroke:#33577B;stroke-width:4;stroke-miterlimit:10;}
	.st14{fill:none;stroke:#FF4176;stroke-width:4;stroke-miterlimit:10;}
	.st15{fill:#FF4176;stroke:#33577B;stroke-width:4;stroke-miterlimit:10;}
	.st16{fill:#EFEFEF;}
	.st17{fill:#00D4FF;}
	.st18{fill:#E6E7E8;}
	.st19{fill:#BCBEC0;}
	.st20{fill:#F1F2F2;}
	.st21{fill:#58595B;}
	.st22{opacity:0.3;}
	.st23{fill:#EDF0F4;}
	.st24{fill:#6D6E71;}
	.st25{fill:#99EEFF;}
	.st26{fill:#FFB936;stroke:#03536B;stroke-width:2;stroke-miterlimit:10;}
	.st27{fill:#EF185B;}
	.st28{fill:#BF8B29;}
	.st29{fill:#03536B;}
</style>
<path class="st3" d="M45.1,39.5c-0.8,0-1.5-0.7-1.5-1.5c0-0.2,0-0.4,0.1-0.6c-0.2,0-0.4-0.1-0.5-0.1c-1.5,0-2.8,1.2-2.8,2.8
	c0,1.5,1.2,2.8,2.8,2.8s2.8-1.2,2.8-2.8c0-0.3,0-0.6-0.1-0.8C45.6,39.5,45.4,39.5,45.1,39.5z"/>
<circle class="st4" cx="43.2" cy="40.2" r="5.4"/>
<g>
	<path class="st1" d="M99.3,20.1c2.3,0,4.4,0.4,6.4,1.1c2,0.7,3.7,1.8,5.1,3.3c1.4,1.5,2.6,3.3,3.4,5.5s1.2,4.8,1.2,7.7
		c0,2.6-0.3,5-1,7.2s-1.7,4.1-3,5.7c-1.4,1.6-3,2.9-5,3.8c-2,0.9-4.4,1.4-7.1,1.4H83.9V20.1H99.3z M98.8,49.2c1.1,0,2.2-0.2,3.3-0.6
		c1.1-0.4,2-1,2.8-1.8c0.8-0.8,1.5-2,2-3.3c0.5-1.4,0.7-3,0.7-5c0-1.8-0.2-3.4-0.5-4.9c-0.3-1.4-0.9-2.7-1.7-3.7
		c-0.8-1-1.9-1.8-3.2-2.4c-1.3-0.6-2.9-0.8-4.9-0.8h-5.6v22.5H98.8z"/>
	<path class="st1" d="M127.8,49.6c1.1,1,2.6,1.6,4.6,1.6c1.4,0,2.7-0.4,3.7-1.1c1-0.7,1.7-1.5,1.9-2.3h6.2c-1,3.1-2.5,5.3-4.6,6.6
		c-2.1,1.3-4.6,2-7.5,2c-2,0-3.9-0.3-5.5-1c-1.6-0.6-3-1.6-4.1-2.8c-1.1-1.2-2-2.6-2.6-4.3c-0.6-1.7-0.9-3.5-0.9-5.5
		c0-1.9,0.3-3.7,0.9-5.4c0.6-1.7,1.5-3.1,2.7-4.3c1.2-1.2,2.6-2.2,4.2-2.9c1.6-0.7,3.4-1,5.4-1c2.2,0,4.1,0.4,5.7,1.3
		c1.6,0.8,3,2,4,3.4c1,1.4,1.8,3.1,2.3,4.9c0.5,1.8,0.6,3.7,0.5,5.7h-18.6C126.2,46.9,126.7,48.5,127.8,49.6z M135.8,36
		c-0.8-0.9-2.1-1.4-3.9-1.4c-1.1,0-2.1,0.2-2.8,0.6c-0.7,0.4-1.3,0.9-1.8,1.4c-0.5,0.6-0.8,1.2-0.9,1.8c-0.2,0.6-0.3,1.2-0.3,1.7
		h11.5C137.3,38.3,136.7,36.9,135.8,36z"/>
	<path class="st1" d="M156.5,49.6c1.1,1,2.6,1.6,4.6,1.6c1.4,0,2.7-0.4,3.7-1.1c1-0.7,1.7-1.5,1.9-2.3h6.2c-1,3.1-2.5,5.3-4.6,6.6
		c-2.1,1.3-4.6,2-7.5,2c-2,0-3.9-0.3-5.5-1c-1.6-0.6-3-1.6-4.1-2.8c-1.1-1.2-2-2.6-2.6-4.3c-0.6-1.7-0.9-3.5-0.9-5.5
		c0-1.9,0.3-3.7,0.9-5.4c0.6-1.7,1.5-3.1,2.7-4.3c1.2-1.2,2.6-2.2,4.2-2.9c1.6-0.7,3.4-1,5.4-1c2.2,0,4.1,0.4,5.7,1.3
		c1.6,0.8,3,2,4,3.4c1,1.4,1.8,3.1,2.3,4.9c0.5,1.8,0.6,3.7,0.5,5.7h-18.6C154.8,46.9,155.4,48.5,156.5,49.6z M164.5,36
		c-0.8-0.9-2.1-1.4-3.9-1.4c-1.1,0-2.1,0.2-2.8,0.6c-0.7,0.4-1.3,0.9-1.8,1.4c-0.5,0.6-0.8,1.2-0.9,1.8c-0.2,0.6-0.3,1.2-0.3,1.7
		h11.5C166,38.3,165.4,36.9,164.5,36z"/>
	<path class="st1" d="M184.3,29.9v3.3h0.1c0.9-1.4,2-2.4,3.3-3c1.3-0.6,2.8-0.9,4.4-0.9c2,0,3.8,0.4,5.2,1.1c1.5,0.8,2.7,1.8,3.6,3
		c1,1.3,1.7,2.7,2.2,4.4c0.5,1.7,0.7,3.4,0.7,5.3c0,1.7-0.2,3.4-0.7,5c-0.5,1.6-1.2,3-2.1,4.2c-0.9,1.2-2.1,2.2-3.5,2.9
		c-1.4,0.7-3.1,1.1-5,1.1c-1.6,0-3.1-0.3-4.4-1c-1.3-0.6-2.5-1.6-3.3-2.9h-0.1v12.2h-7.1V29.9H184.3z M193.6,50.4
		c0.8-0.5,1.4-1.1,1.9-1.8c0.5-0.7,0.8-1.6,1-2.6c0.2-1,0.3-2,0.3-3s-0.1-2.1-0.3-3c-0.2-1-0.6-1.9-1.1-2.7
		c-0.5-0.8-1.1-1.4-1.9-1.9c-0.8-0.5-1.7-0.7-2.9-0.7c-1.2,0-2.1,0.2-2.9,0.7c-0.8,0.5-1.4,1.1-1.9,1.9c-0.5,0.8-0.8,1.7-1,2.6
		c-0.2,1-0.3,2-0.3,3.1c0,1,0.1,2.1,0.3,3c0.2,1,0.6,1.9,1,2.6c0.5,0.7,1.1,1.4,1.9,1.8c0.8,0.5,1.8,0.7,2.9,0.7
		C191.8,51.1,192.8,50.9,193.6,50.4z"/>
	<path class="st1" d="M211.4,20.1h15.2c1,0,2.1,0.1,3.3,0.3c1.2,0.2,2.4,0.7,3.4,1.4c1,0.7,1.9,1.7,2.6,3c0.7,1.3,1,3,1,5.2
		c0,3.1-1,5.5-2.9,7.2c-1.9,1.7-4.7,2.5-8.3,2.5h-12.2v15.9h-2.2V20.1z M213.5,38h12.5c1.6,0,3-0.2,4.1-0.7c1.1-0.5,2-1.1,2.7-1.9
		s1.1-1.6,1.5-2.5c0.3-0.9,0.4-1.9,0.4-2.8c0-0.7-0.1-1.5-0.3-2.4c-0.2-0.9-0.6-1.8-1.2-2.6c-0.6-0.8-1.4-1.6-2.5-2.1
		c-1.1-0.6-2.5-0.9-4.3-0.9h-12.8V38z"/>
	<path class="st1" d="M259.9,55.8H258v-5.5h-0.1c-0.3,1-0.8,1.8-1.4,2.6c-0.6,0.7-1.3,1.4-2.1,1.9c-0.8,0.5-1.7,0.9-2.7,1.2
		c-1,0.3-1.9,0.4-3,0.4c-1.5,0-2.8-0.2-3.8-0.6c-1-0.4-1.9-0.8-2.6-1.4s-1.2-1.3-1.6-2c-0.4-0.7-0.7-1.5-0.8-2.3
		c-0.2-0.8-0.3-1.5-0.3-2.2c0-0.7-0.1-1.3-0.1-1.9V30.1h1.9v16.2c0,0.7,0,1.5,0.1,2.4c0.1,1,0.4,1.9,0.9,2.7
		c0.5,0.9,1.2,1.6,2.2,2.3c1,0.6,2.3,0.9,4.1,0.9c1.4,0,2.7-0.3,3.9-0.8c1.1-0.5,2.1-1.3,2.9-2.2c0.8-0.9,1.4-2.1,1.8-3.4
		c0.4-1.3,0.6-2.8,0.6-4.3V30.1h1.9V55.8z"/>
	<path class="st1" d="M267.8,20.1v35.7h-1.9V20.1H267.8z"/>
	<path class="st1" d="M274.8,47.2c0.1,1.2,0.3,2.3,0.8,3.2c0.5,0.9,1.1,1.7,1.8,2.3c0.7,0.6,1.6,1.1,2.6,1.5c1,0.3,2.1,0.5,3.2,0.5
		c0.8,0,1.7-0.1,2.7-0.2c0.9-0.1,1.8-0.4,2.6-0.8c0.8-0.4,1.5-1,2-1.7c0.5-0.7,0.8-1.6,0.8-2.7c0-1.4-0.4-2.5-1.3-3.2
		c-0.9-0.7-2-1.3-3.3-1.7c-1.3-0.4-2.7-0.7-4.2-1c-1.5-0.3-2.9-0.6-4.2-1.1c-1.3-0.5-2.4-1.2-3.3-2.1c-0.9-0.9-1.3-2.3-1.3-4
		c0-1.3,0.3-2.3,0.9-3.2c0.6-0.8,1.3-1.5,2.2-2c0.9-0.5,1.9-0.9,3-1.1c1.1-0.2,2.2-0.3,3.3-0.3c1.3,0,2.6,0.1,3.7,0.5
		c1.2,0.3,2.2,0.8,3,1.4c0.9,0.7,1.5,1.5,2,2.5c0.5,1,0.7,2.3,0.7,3.8h-1.9c0-1.2-0.2-2.2-0.6-3c-0.4-0.8-0.9-1.5-1.6-2
		c-0.7-0.5-1.5-0.9-2.4-1.1c-0.9-0.2-1.9-0.4-3-0.4c-0.9,0-1.7,0.1-2.6,0.2c-0.9,0.2-1.7,0.5-2.4,0.9c-0.7,0.4-1.3,0.9-1.7,1.5
		c-0.5,0.6-0.7,1.4-0.7,2.3c0,1,0.2,1.9,0.7,2.5c0.5,0.6,1.2,1.1,2,1.5c0.8,0.4,1.7,0.7,2.7,0.9s2,0.5,3.1,0.7
		c1.3,0.2,2.5,0.5,3.6,0.8c1.1,0.3,2.1,0.7,2.9,1.3c0.8,0.6,1.5,1.3,1.9,2.1c0.5,0.9,0.7,2,0.7,3.3c0,1.4-0.3,2.5-0.9,3.4
		c-0.6,0.9-1.4,1.6-2.4,2.2c-1,0.6-2,0.9-3.2,1.1c-1.2,0.2-2.3,0.3-3.5,0.3c-1.5,0-2.8-0.2-4.1-0.6c-1.3-0.4-2.3-1-3.3-1.7
		c-0.9-0.8-1.7-1.7-2.2-2.9c-0.5-1.1-0.8-2.4-0.8-3.9H274.8z"/>
	<path class="st1" d="M298.6,43.2v0.3c0,1.5,0.2,2.9,0.6,4.3c0.4,1.4,1,2.6,1.8,3.6s1.8,1.8,3,2.4c1.2,0.6,2.6,0.9,4.1,0.9
		c2.6,0,4.6-0.7,6.1-2c1.5-1.3,2.5-3.2,3.1-5.6h1.9c-0.6,3-1.8,5.3-3.7,6.9c-1.9,1.6-4.4,2.4-7.5,2.4c-1.9,0-3.6-0.3-5-1
		c-1.4-0.7-2.6-1.6-3.5-2.8c-0.9-1.2-1.7-2.6-2.1-4.2c-0.5-1.6-0.7-3.4-0.7-5.2c0-1.8,0.2-3.5,0.7-5.2s1.2-3.1,2.2-4.3
		c1-1.2,2.2-2.2,3.6-3c1.5-0.7,3.2-1.1,5.1-1.1c1.8,0,3.4,0.3,4.8,1c1.4,0.7,2.5,1.6,3.5,2.7c0.9,1.1,1.6,2.5,2.1,4s0.7,3.1,0.7,4.9
		c0,0.2,0,0.4,0,0.6c0,0.2,0,0.4,0,0.5H298.6z M317.5,41.5c-0.1-1.4-0.3-2.7-0.7-4c-0.4-1.3-1-2.4-1.8-3.3c-0.8-0.9-1.7-1.7-2.9-2.3
		c-1.1-0.6-2.4-0.8-3.8-0.8c-1.5,0-2.9,0.3-4.1,0.9c-1.2,0.6-2.2,1.3-3,2.3c-0.8,1-1.4,2.1-1.9,3.3c-0.4,1.3-0.7,2.6-0.8,3.9H317.5z
		"/>
</g>
<g>
	<g>
		<path class="st3" d="M36,26.6c-0.6,2.1,0.7,4.2,2.8,4.8c2.1,0.6,4.2-0.7,4.8-2.8c0.1-0.2,0.1-0.5,0.1-0.7c0.3-3.1,3-5.4,6.3-5.3
			c0.7,0,1.3,0.2,1.9,0.3c0.8,0.2,1.6,0.4,2.5,0.2c1.7-0.3,3.1-1.3,4-2.7c0.9-1.4,1.1-3,0.8-4.6c-0.4-1.6-1.4-2.9-2.8-3.8
			c-2.7-1.6-6.2-0.8-8,1.8c-0.6,0.9-0.9,1.8-1,2.9c-0.5,6.6-4,7.2-6.5,7.1l-0.1,0l-0.1,0c-0.3-0.1-0.7-0.1-1-0.1
			C38.1,23.7,36.5,24.9,36,26.6z"/>
		<path class="st3" d="M38.6,20.9c1.5-1.4,2.1-3.6,1.7-5.6c-0.4-1.6-1.4-3-2.8-3.9c-0.9-0.5-2-0.8-3-0.8c-0.6,0-1.2,0.1-1.7,0.3
			c-2.8,0.8-4.6,3.6-4.2,6.4c0.1,1.2,0.6,2.3,1.4,3.2c4.3,5,2.3,7.9,0.4,9.6l0,0l-0.1,0c-1.9,1.1-2.5,3.5-1.4,5.3
			c1.1,1.9,3.5,2.5,5.3,1.4c0.9-0.5,1.5-1.4,1.8-2.4c0.3-1,0.1-2.1-0.4-3c-0.1-0.2-0.2-0.4-0.4-0.6c-1.3-1.6-1.8-3.9-1.1-5.8
			c0.6-1.6,1.8-2.4,2.9-3.1C37.6,21.8,38.1,21.4,38.6,20.9z"/>
		<path class="st3" d="M46,30.7c0.5,0.9,1.4,1.5,2.4,1.8c1,0.3,2.1,0.1,3-0.4c0.2-0.1,0.4-0.2,0.6-0.4c1.1-0.9,2.3-1.4,3.7-1.4
			c0.2,0,0.3,0,0.5,0c1.6,0.1,3.2,1,4.3,2.3c0.4,0.5,0.7,0.9,1,1.4c0.5,0.8,1,1.5,1.8,2c1.3,0.9,3,1.2,4.6,0.8
			c1.6-0.4,3-1.4,3.9-2.8c0.8-1.4,1-3.1,0.6-4.8c-0.8-2.8-3.6-4.6-6.5-4.2c-1.2,0.1-2.3,0.6-3.2,1.4c-5,4.3-7.9,2.3-9.6,0.4l0,0
			l0-0.1c-1.1-1.9-3.5-2.5-5.3-1.4C45.6,26.4,45,28.8,46,30.7z"/>
		<path class="st3" d="M71,53c1.6-2.7,0.8-6.2-1.8-8l0,0c-0.9-0.6-1.8-0.9-2.9-1c-6.6-0.5-7.2-4-7.1-6.5l0-0.1l0-0.1
			c0.6-2.1-0.7-4.2-2.8-4.8c-0.3-0.1-0.7-0.1-1-0.1c-1.7,0-3.3,1.2-3.8,2.9c-0.6,2.1,0.7,4.2,2.8,4.8c0.2,0.1,0.5,0.1,0.7,0.1
			c3.1,0.3,5.3,2.9,5.3,6.3c0,0.7-0.1,1.3-0.3,1.9c-0.2,0.9-0.3,1.7-0.2,2.5c0.3,1.7,1.3,3.1,2.7,4c1.4,0.9,3,1.1,4.6,0.8
			C68.8,55.5,70.2,54.5,71,53z"/>
		<path class="st3" d="M28,59.2c-0.9,1.4-1.1,3-0.8,4.6c0.4,1.6,1.4,2.9,2.8,3.8c2.7,1.6,6.2,0.8,8-1.8c0.6-0.8,0.9-1.8,1-2.9
			c0.5-6.6,4-7.2,6.5-7.1l0.1,0l0.1,0c2.1,0.6,4.2-0.7,4.8-2.8c0.6-2.1-0.7-4.2-2.8-4.8c-2.1-0.6-4.2,0.7-4.8,2.8
			c-0.1,0.2-0.1,0.5-0.1,0.7C42.5,54.8,40,57,36.7,57c-0.1,0-0.2,0-0.3,0c-0.7,0-1.3-0.1-1.9-0.3c-0.6-0.1-1.2-0.2-1.8-0.2
			c-0.2,0-0.5,0-0.7,0.1C30.3,56.8,28.9,57.8,28,59.2z"/>
		<path class="st3" d="M46.9,59.8c-0.8,1.3-1.1,3-0.8,4.5c0.4,1.6,1.4,3,2.8,3.9c1.4,0.8,3.1,1,4.8,0.6c2.8-0.8,4.6-3.6,4.2-6.4
			c-0.1-1.2-0.6-2.3-1.4-3.2c-4.3-5-2.3-7.9-0.4-9.6l0,0l0.1,0c1.9-1.1,2.5-3.5,1.4-5.3c-0.7-1.3-2-2-3.4-2c-0.7,0-1.3,0.2-2,0.5
			c-0.9,0.5-1.5,1.4-1.8,2.4c-0.3,1-0.1,2.1,0.4,3c0.1,0.2,0.2,0.4,0.4,0.6c1,1.2,1.5,2.6,1.3,4.1c-0.2,1.6-1,3.2-2.4,4.3
			c-0.4,0.3-0.8,0.6-1.2,0.9C48.2,58.5,47.5,59,46.9,59.8z"/>
		<path class="st3" d="M33.6,52.8L33.6,52.8c1.1,2,3.5,2.6,5.4,1.5c1.9-1.1,2.5-3.5,1.4-5.3c-0.5-0.9-1.4-1.5-2.4-1.8
			c-1-0.3-2.1-0.1-3,0.4c-0.2,0.1-0.4,0.2-0.6,0.4c-2.6,2.2-6.1,1.7-8.5-1.1c-0.4-0.4-0.7-0.9-0.9-1.3c-0.6-0.8-1-1.5-1.9-2.1
			c-1.3-0.8-2.9-1.1-4.4-0.7c-1.6,0.4-3,1.4-3.9,2.8c-0.8,1.4-1,3.1-0.6,4.8c0.8,2.8,3.6,4.6,6.4,4.2c1.2-0.1,2.3-0.6,3.2-1.4
			c2.2-1.9,4-2.6,5.5-2.6C31.3,50.6,32.6,51.7,33.6,52.8L33.6,52.8z"/>
		<path class="st3" d="M27.3,42.2L27.3,42.2c-0.6,2.2,0.7,4.3,2.7,4.9c2.1,0.6,4.2-0.7,4.8-2.8c0.6-2.1-0.7-4.2-2.8-4.8
			c-0.2-0.1-0.5-0.1-0.7-0.1c-3.1-0.3-5.4-3-5.3-6.4c0-0.7,0.2-1.3,0.3-1.9c0.2-0.8,0.4-1.6,0.2-2.5c-0.3-1.7-1.3-3.1-2.7-4
			c-1-0.6-2.1-0.9-3.2-0.9c-2,0-3.9,1-5.1,2.8c-0.9,1.4-1.1,3-0.8,4.5c0.4,1.6,1.3,2.9,2.6,3.7h0c0.8,0.5,1.8,0.8,2.7,0.9
			C26.8,36.1,27.4,39.6,27.3,42.2L27.3,42.2z"/>
		<path class="st3" d="M74.2,37.2c-2-0.3-3.8,1-4.2,3c-0.3,2,1,3.8,3,4.2c2,0.3,3.8-1,4.2-3C77.5,39.4,76.2,37.6,74.2,37.2z"/>
		<path class="st3" d="M62,59.1c-1.6,1.2-2,3.4-0.8,5.1c1.2,1.6,3.4,2,5.1,0.8c1.6-1.2,2-3.4,0.8-5.1C65.9,58.3,63.7,57.9,62,59.1z"
			/>
		<path class="st3" d="M43,66.8c-2-0.3-3.8,1-4.2,3c-0.3,2,1,3.8,3,4.2c2,0.3,3.8-1,4.2-3C46.3,69,45,67.1,43,66.8z"/>
		<path class="st3" d="M19.1,58c-1.6,1.2-2,3.4-0.8,5.1c1.2,1.6,3.4,2,5.1,0.8c1.6-1.2,2-3.4,0.8-5.1C23,57.2,20.7,56.8,19.1,58z"/>
		<path class="st3" d="M16.4,39.8c0.3-2-1-3.8-3-4.2c-2-0.3-3.8,1-4.2,3c-0.3,2,1,3.8,3,4.2C14.2,43.1,16.1,41.7,16.4,39.8z"/>
		<path class="st3" d="M24.4,20.9c1.6-1.2,2-3.4,0.8-5.1c-1.2-1.6-3.4-2-5.1-0.8c-1.6,1.2-2,3.4-0.8,5.1
			C20.5,21.7,22.8,22,24.4,20.9z"/>
		<path class="st3" d="M43.5,13.2c2,0.3,3.8-1,4.2-3c0.3-2-1-3.8-3-4.2c-2-0.3-3.8,1-4.2,3C40.1,11,41.5,12.9,43.5,13.2z"/>
		<path class="st3" d="M67.4,22c1.6-1.2,2-3.4,0.8-5.1c-1.2-1.6-3.4-2-5.1-0.8c-1.6,1.2-2,3.4-0.8,5.1C63.5,22.8,65.8,23.2,67.4,22z
			"/>
	</g>
</g>
</svg>
